<?xml version="1.0" encoding="UTF-8"?>
<svg width="34px" height="34px" viewBox="0 0 34 34" version="1.1" xmlns="http://www.w3.org/2000/svg" xmlns:xlink="http://www.w3.org/1999/xlink">
    <title>Shape</title>
    <g id="Welcome" stroke="none" stroke-width="1" fill="none" fill-rule="evenodd">
        <g id="CREA-SESSION--4" transform="translate(-838.000000, -531.000000)" fill="#429F96" fill-rule="nonzero">
            <g id="circle-ctrl-right" transform="translate(838.000000, 531.000000)">
                <path d="M17,0 C7.62591667,0 0,7.62591667 0,17 C0,26.3740833 7.62591667,34 17,34 C26.3740833,34 34,26.3740833 34,17 C34,7.62591667 26.3740833,0 17,0 Z M14.1666667,24.6698333 L12.1635,22.6666667 L17.8301667,17 L12.1635,11.3333333 L14.1666667,9.33016667 L21.8365,17 L14.1666667,24.6698333 Z" id="Shape"></path>
            </g>
        </g>
    </g>
</svg>