<?xml version="1.0" encoding="UTF-8"?>
<svg width="20px" height="20px" viewBox="0 0 20 20" version="1.1" xmlns="http://www.w3.org/2000/svg" xmlns:xlink="http://www.w3.org/1999/xlink">
    <title>Alerte</title>
    <g id="Welcome" stroke="none" stroke-width="1" fill="none" fill-rule="evenodd">
        <g id="GuideLine" transform="translate(-770.000000, -280.000000)" fill="#80BC00" fill-rule="nonzero">
            <g id="Alerte" transform="translate(770.000000, 280.000000)">
                <path d="M19.1666667,12.4444444 C17.8364714,12.3371604 16.7816139,11.3526267 16.6666667,10.1111111 L16.6666667,6.22222222 C16.6666667,2.78578378 13.6818983,0 10,0 C6.31810167,0 3.33333333,2.78578378 3.33333333,6.22222222 L3.33333333,10.1111111 C3.21838613,11.3526267 2.16352861,12.3371604 0.833333333,12.4444444 C0.373096042,12.4444444 0,12.7926674 0,13.2222222 C0,13.651777 0.373096042,14 0.833333333,14 L19.1666667,14 C19.626904,14 20,13.651777 20,13.2222222 C20,12.7926674 19.626904,12.4444444 19.1666667,12.4444444 Z" id="Path"></path>
                <path d="M10.5,20 C12.4329966,20 14,18.6568542 14,17 L7,17 C7,18.6568542 8.56700338,20 10.5,20 Z" id="Path"></path>
            </g>
        </g>
    </g>
</svg>