<?xml version="1.0" encoding="UTF-8"?>
<svg width="12px" height="12px" viewBox="0 0 12 12" version="1.1" xmlns="http://www.w3.org/2000/svg" xmlns:xlink="http://www.w3.org/1999/xlink">
    <title>edit-small</title>
    <g id="Welcome" stroke="none" stroke-width="1" fill="none" fill-rule="evenodd">
        <g id="GuideLine" transform="translate(-880.000000, -362.000000)" fill="#000000" fill-rule="nonzero">
            <path d="M890.121,362.292786 C889.7305,361.902405 889.0975,361.902405 888.707,362.292786 L881,369.999786 L880,373.999786 L884,372.999786 L891.707,365.292786 C892.097382,364.902287 892.097382,364.269286 891.707,363.878786 L890.121,362.292786 Z" id="edit-small"></path>
        </g>
    </g>
</svg>