<?xml version="1.0" encoding="UTF-8"?>
<svg width="24px" height="24px" viewBox="0 0 24 24" version="1.1" xmlns="http://www.w3.org/2000/svg" xmlns:xlink="http://www.w3.org/1999/xlink">
    <title>newsletter</title>
    <g id="FICHE-SESSION" stroke="none" stroke-width="1" fill="none" fill-rule="evenodd">
        <g id="Session-Fiche--Participants" transform="translate(-1690.000000, -590.000000)">
            <g id="Group-10" transform="translate(282.000000, 538.000000)">
                <g id="Group-6" transform="translate(1359.000000, 53.000000)">
                    <g id="newsletter" transform="translate(50.000000, 0.000000)">
                        <polygon id="Path" fill="#000000" fill-rule="nonzero" points="0 10 4 7.1 4 12.182"></polygon>
                        <polygon id="Path" fill="#000000" fill-rule="nonzero" points="22 10 18 7.1 18 12.182"></polygon>
                        <polyline id="Path" stroke="#000000" stroke-width="2" stroke-linecap="round" stroke-linejoin="round" points="4 7.1 0 10 0 22 22 22 22 10 18 7.1"></polyline>
                        <polyline id="Path" stroke="#000000" stroke-width="2" stroke-linecap="round" stroke-linejoin="round" points="4 12.2 4 0 18 0 18 12.2"></polyline>
                        <line x1="0" y1="10" x2="22" y2="22" id="Path" stroke="#000000" stroke-width="2" stroke-linecap="round" stroke-linejoin="round"></line>
                        <line x1="22" y1="10" x2="11" y2="16" id="Path" stroke="#000000" stroke-width="2" stroke-linecap="round" stroke-linejoin="round"></line>
                        <line x1="8" y1="5" x2="14" y2="5" id="Path" stroke="#000000" stroke-width="2" stroke-linecap="round" stroke-linejoin="round"></line>
                        <line x1="8" y1="9" x2="14" y2="9" id="Path" stroke="#000000" stroke-width="2" stroke-linecap="round" stroke-linejoin="round"></line>
                    </g>
                </g>
            </g>
        </g>
    </g>
</svg>