<?xml version="1.0" encoding="UTF-8"?>
<svg width="17px" height="16px" viewBox="0 0 17 16" version="1.1" xmlns="http://www.w3.org/2000/svg" xmlns:xlink="http://www.w3.org/1999/xlink">
    <title>share</title>
    <g id="Welcome" stroke="none" stroke-width="1" fill="none" fill-rule="evenodd">
        <g id="CREA-SESSION--3-Évaluations---Evaluation-externe" transform="translate(-1178.000000, -524.000000)" fill="#000000" fill-rule="nonzero">
            <g id="Group-20" transform="translate(524.000000, 390.000000)">
                <g id="Group-11-Copy-2" transform="translate(0.000000, 100.000000)">
                    <g id="share" transform="translate(654.000000, 34.000000)">
                        <polygon id="Path" points="16.4239174 0 10.2649483 0 12.618701 2.293 7.48622683 7.293 8.93769053 8.707 14.0701647 3.707 16.4239174 6"></polygon>
                        <path d="M15.3974225,16 L1.02649483,16 C0.459869686,16 0,15.552 0,15 L0,1 C0,0.448 0.459869686,0 1.02649483,0 L8.21195868,0 L8.21195868,2 L2.05298967,2 L2.05298967,14 L14.3709277,14 L14.3709277,8 L16.4239174,8 L16.4239174,15 C16.4239174,15.552 15.9640477,16 15.3974225,16 Z" id="Path"></path>
                    </g>
                </g>
            </g>
        </g>
    </g>
</svg>