<?xml version="1.0" encoding="UTF-8"?>
<svg width="16px" height="16px" viewBox="0 0 16 16" version="1.1" xmlns="http://www.w3.org/2000/svg" xmlns:xlink="http://www.w3.org/1999/xlink">
    <title>options</title>
    <g id="Welcome" stroke="none" stroke-width="1" fill="none" fill-rule="evenodd">
        <g id="GuideLine" transform="translate(-490.000000, -75.000000)" fill="#FFFFFF" fill-rule="nonzero">
            <path d="M503.3,80.2 L504.4,78.1 L503,76.7 L500.9,77.8 C500.6,77.6 500.2,77.5 499.8,77.4 L499,75 L497,75 L496.2,77.3 C495.9,77.4 495.5,77.5 495.2,77.7 L493.1,76.6 L491.6,78.1 L492.7,80.2 C492.5,80.5 492.4,80.9 492.3,81.2 L490,82 L490,84 L492.3,84.8 C492.4,85.2 492.6,85.5 492.7,85.9 L491.6,88 L493,89.4 L495.1,88.3 C495.4,88.5 495.8,88.6 496.2,88.7 L497,91 L499,91 L499.8,88.7 C500.2,88.6 500.5,88.4 500.9,88.3 L503,89.4 L504.4,88 L503.3,85.9 C503.5,85.6 503.6,85.2 503.7,84.8 L506,84 L506,82 L503.7,81.2 C503.6,80.9 503.5,80.5 503.3,80.2 Z M498,86 C496.3,86 495,84.7 495,83 C495,81.3 496.3,80 498,80 C499.7,80 501,81.3 501,83 C501,84.7 499.7,86 498,86 Z" id="options"></path>
        </g>
    </g>
</svg>