<?xml version="1.0" encoding="UTF-8"?>
<svg width="22px" height="22px" viewBox="0 0 22 22" version="1.1" xmlns="http://www.w3.org/2000/svg" xmlns:xlink="http://www.w3.org/1999/xlink">
    <title>send-message</title>
    <g id="FICHE-SESSION" stroke="none" stroke-width="1" fill="none" fill-rule="evenodd" stroke-linecap="round" stroke-linejoin="round">
        <g id="Session-Fiche--Participants" transform="translate(-1550.000000, -479.000000)" stroke="#000000" stroke-width="2">
            <g id="Group-9" transform="translate(1551.000000, 477.000000)">
                <g id="send-message" transform="translate(0.000000, 3.000000)">
                    <line x1="20" y1="0" x2="8" y2="12" id="Path"></line>
                    <polygon id="Path" points="20 0 13 20 8 12 0 7"></polygon>
                </g>
            </g>
        </g>
    </g>
</svg>