<?xml version="1.0" encoding="UTF-8"?>
<svg xmlns="http://www.w3.org/2000/svg" xmlns:xlink="http://www.w3.org/1999/xlink" width="22px" height="22px" viewBox="0 0 22 22" version="1.1">
<g id="surface1">
<path style=" stroke:none;fill-rule:nonzero;fill:rgb(0%,0%,0%);fill-opacity:1;" d="M 11 0 C 5.941406 0.00390625 1.839844 4.105469 1.832031 9.167969 C 1.832031 14.007812 9.535156 20.65625 10.40625 21.398438 L 11 21.898438 L 11.59375 21.398438 C 12.464844 20.65625 20.167969 14.007812 20.167969 9.167969 C 20.160156 4.105469 16.058594 0.00390625 11 0 Z M 11 13.75 C 8.46875 13.75 6.417969 11.699219 6.417969 9.167969 C 6.417969 6.636719 8.46875 4.582031 11 4.582031 C 13.53125 4.582031 15.582031 6.636719 15.582031 9.167969 C 15.582031 11.695312 13.53125 13.746094 11 13.75 Z M 11 13.75 "/>
<path style=" stroke:none;fill-rule:nonzero;fill:rgb(0%,0%,0%);fill-opacity:1;" d="M 13.75 9.167969 C 13.75 10.683594 12.519531 11.917969 11 11.917969 C 9.480469 11.917969 8.25 10.683594 8.25 9.167969 C 8.25 7.648438 9.480469 6.417969 11 6.417969 C 12.519531 6.417969 13.75 7.648438 13.75 9.167969 Z M 13.75 9.167969 "/>
</g>
</svg>
