<svg xmlns="http://www.w3.org/2000/svg" width="12" height="12" viewBox="0 0 12 12">
  <g id="swap-horizontal" transform="translate(0)">
    <path id="Path" d="M3.5,6a.507.507,0,0,0,.212-.047A.5.5,0,0,0,4,5.5V4h6.5a.5.5,0,0,0,.5-.5v-1a.5.5,0,0,0-.5-.5H4V.5A.5.5,0,0,0,3.18.116l-3,2.5a.5.5,0,0,0,0,.768l3,2.5A.5.5,0,0,0,3.5,6Z" transform="translate(0 0)"/>
    <path id="Path-2" data-name="Path" d="M7.82.116A.5.5,0,0,0,7,.5V2H.5a.5.5,0,0,0-.5.5v1A.5.5,0,0,0,.5,4H7V5.5a.5.5,0,0,0,.288.453A.507.507,0,0,0,7.5,6a.5.5,0,0,0,.32-.116l3-2.5a.5.5,0,0,0,0-.768Z" transform="translate(1 6)"/>
  </g>
</svg>
