<?xml version="1.0" encoding="UTF-8"?>
<svg width="18px" height="18px" viewBox="0 0 18 18" version="1.1" xmlns="http://www.w3.org/2000/svg" xmlns:xlink="http://www.w3.org/1999/xlink">
    <title>a-delete</title>
    <g id="Welcome" stroke="none" stroke-width="1" fill="none" fill-rule="evenodd" stroke-linecap="round" stroke-linejoin="round">
        <g id="CREA-SESSION--4" transform="translate(-1577.000000, -610.000000)" stroke="#000000" stroke-width="2">
            <g id="Group-Copy-2" transform="translate(892.000000, 325.000000)">
                <g id="Group-7" transform="translate(1.021552, 263.000000)">
                    <g id="a-delete" transform="translate(685.375115, 23.000000)">
                        <path d="M6.85714286,9.14285714 C4.70552381,9.14285714 2.79695238,9.62895238 1.54285714,10.0518095 C0.617142857,10.3649524 0,11.2373333 0,12.2148571 L0,15.2380952 C0,15.2380952 7.58704762,15.2380952 7.61904762,15.2380952" id="Path"></path>
                        <path d="M6.85714286,9.14285714 L6.85714286,9.14285714 C4.75352381,9.14285714 3.04761905,6.67504762 3.04761905,4.57142857 L3.04761905,3.80952381 C3.04761905,1.70590476 4.75352381,0 6.85714286,0 L6.85714286,0 C8.9607619,0 10.6666667,1.70590476 10.6666667,3.80952381 L10.6666667,4.57142857 C10.6666667,6.67504762 8.9607619,9.14285714 6.85714286,9.14285714 Z" id="Path"></path>
                        <line x1="15.2380952" y1="11.4285714" x2="10.6666667" y2="16" id="Path"></line>
                        <line x1="10.6666667" y1="11.4285714" x2="15.2380952" y2="16" id="Path"></line>
                    </g>
                </g>
            </g>
        </g>
    </g>
</svg>