<svg xmlns="http://www.w3.org/2000/svg" xmlns:v="https://vecta.io/nano" id="play-button" viewBox="0 0 30.051 30.051">
    <path d="M19.982 14.438l-6.24-4.536c-.229-.166-.533-.191-.784-.062a.75.75 0 0 0-.411.669v9.069a.75.75 0 0 0 .411.671.76.76 0 0 0 .342.081.75.75 0 0 0 .442-.146l6.24-4.532c.197-.145.312-.369.312-.607s-.117-.465-.312-.607zM15.026.002C6.726.002 0 6.728 0 15.028s6.726 15.021 15.026 15.021 15.025-6.725 15.025-15.021A15.03 15.03 0 0 0 15.026.002zm0 27.54c-6.912 0-12.516-5.601-12.516-12.514A12.52 12.52 0 0 1 15.026 2.51 12.52 12.52 0 0 1 27.54 15.028c.001 6.913-5.603 12.514-12.514 12.514z" fill="#ffffff"/>
</svg>
