<?xml version="1.0" encoding="UTF-8"?>
<svg width="132px" height="159px" viewBox="0 0 132 159" version="1.1" xmlns="http://www.w3.org/2000/svg" xmlns:xlink="http://www.w3.org/1999/xlink">
    <title>support</title>
    <g id="Welcome" stroke="none" stroke-width="1" fill="none" fill-rule="evenodd">
        <g id="GuideLine" transform="translate(-842.000000, -76.000000)">
            <g id="support" transform="translate(842.000000, 76.000000)">
                <rect id="elm/card/lightblue" fill="#3F8CFF" opacity="0.100655238" x="0" y="36" width="132" height="123" rx="24"></rect>
                <g id="illustration" transform="translate(14.000000, 0.000000)">
                    <path d="M5.5,92.384021 L5.5,73.9345037 C5.5,70.6888703 12.1059513,68.0564516 20.2507407,68.0564516 L53.6064022,68.0564516 C61.7540255,68.0564516 68.3571429,70.6888703 68.3571429,73.9345037 L68.3571429,93.0887097 L5.5,92.384021" id="Fill-130" fill="#B0D4FF"></path>
                    <path d="M52.1717221,2.58277228 C48.2292909,0.512549418 42.2283207,0.232665818 41.2548809,0.101881764 C29.5907815,-1.46466509 22.5705626,15.475161 22.1582822,20.6092221 C21.3967087,30.070318 16.3892198,31.512663 9.34323338,37.4365796 C-4.78882227,49.3187545 -0.645976948,63.124056 7.08141734,68.2523935 C11.7195717,71.3316855 19.8907401,68.2523935 19.8907401,68.2523935 C20.0052624,68.3325238 42.239773,55.8293393 53.19956,49.7966744 C69.6306515,47.4614493 62.2181936,7.85706138 52.1717221,2.58277228" id="Fill-140" fill="#233862"></path>
                    <path d="M35.0770996,44.7236468 C31.6308565,43.2281418 29.0231223,37.6701783 29.0721074,37.6673512 C30.6396294,37.5966752 32.9470442,35.4171436 34.2725223,26.5967742 L34.5714286,26.8066287 L45.5714286,31.6287906 C45.5714286,31.6287906 44.7588529,35.1597654 44.2315431,38.5211178 C43.7906775,41.3453322 43.5515152,44.0508109 44.1652692,44.4494238 C44.2142542,44.4805212 38.7365718,46.3124441 35.0770996,44.7236468 Z" id="Fill-141" fill="#FFB27D"></path>
                    <path d="M45.5714286,31.3757006 C45.5714286,31.3757006 44.7746138,34.9387546 44.2575318,38.3306452 C37.9395252,37.1838495 35.4586621,30.8279773 34.5714286,27.3790323 L45.5714286,31.3757006" id="Fill-142" fill="#ED975D"></path>
                    <path d="M47.8685692,34.4155152 C47.8685692,34.4155152 32.4439286,32.383604 33.8801256,22.9902715 C35.3163227,13.596939 34.2941905,7.0074169 44.202792,7.90418218 C54.1113936,8.80378532 55.4723061,12.6689572 55.7705486,15.9183124 C56.0687912,19.1676676 51.9165601,34.6993017 47.8685692,34.4155152" id="Fill-143" fill="#FFB27D"></path>
                    <path d="M55,11.7108666 C55,11.7108666 45.3957497,20.2927106 38.8642961,20.9849833 C32.3300261,21.6772559 29.8571429,19.5011246 29.8571429,19.5011246 C29.8571429,19.5011246 33.7072925,16.1858105 36.0252684,10.8345721 C36.7068604,9.25724207 38.1517227,8.17647888 39.8134552,8.02750881 C44.4775721,7.60980844 53.3185521,7.41994464 55,11.7108666" id="Fill-144" fill="#233862"></path>
                    <path d="M48.7142857,10.4365094 C48.7142857,10.4365094 51.9669017,13.6075584 52.9940436,15.9592521 C53.9812411,18.2304477 54.2779709,23.6583178 53.4904955,25.8145161 C53.4904955,25.8145161 58.5634352,15.878754 55.690291,11.0517446 C52.6459566,5.93149223 48.7142857,10.4365094 48.7142857,10.4365094" id="Fill-145" fill="#233862"></path>
                    <path d="M53.8589204,93.993998 C53.0443729,94.6869039 50.7607817,95.1009575 47.756959,95.2953091 C38.3053495,95.9149811 21.6942958,94.3798847 21.0626642,92.6588866 C18.8819633,86.7044025 20.4224584,84.8538368 18.6047313,75.736209 C18.4132412,74.7672674 18.1788801,73.7166418 17.9045062,72.5730654 C16.3868755,66.311562 14.9121158,64.1821439 20.2909876,54.1209248 C25.1696986,45.0089304 29.8669168,37.2875548 30.3242066,37.5551404 C43.1940577,45.0841546 44.1394472,39.5837933 44.1394472,39.5837933 C44.1394472,39.5837933 57.5801165,52.270359 57.3543297,67.086152 C56.8941818,97.4585276 57.228575,91.1097068 53.8589204,93.993998 Z" id="Fill-146" fill="#FFFFFF"></path>
                    <path d="M21.9861479,92.66828 C19.7846133,86.6213748 20.692236,83.946923 18.8571429,74.6877782 L23.8828214,62.5806452 C23.8828214,62.5806452 23.12397,76.885552 27.3770002,80.6469902 C31.6300305,84.4084284 44.7988433,87.9095694 46.8676511,91.0531592 C47.865988,92.5634553 48.5238515,94.0737514 48.7142857,95.2894253 C39.1723786,95.9187153 22.6238139,94.4159901 21.9861479,92.66828 Z" id="Fill-149" fill="#EBF3FF"></path>
                    <path d="M36.9285714,89.1892409 C36.9285714,89.1892409 46.2479042,86.9229609 47.7506538,87.8251027 C49.2534033,88.730366 52.927426,92.0205301 53.39025,93.1661565 C53.8502171,94.3117828 50.0419183,92.2952307 48.8020071,91.9331253 C48.0020643,91.6990055 45.88793,92.4981345 44.8451475,92.8789695 C40.4454625,94.4834707 37.7513697,93.6593689 37.7513697,93.6593689 L36.9285714,89.1892409" id="Fill-150" fill="#FFB27D"></path>
                    <path d="M14.0524731,43.7980493 C7.9884636,52.1734451 -4.03730512,87.8638288 2.85606774,92.6268605 C10.6185679,97.9863261 38.1806982,94.0279176 38.1806982,94.0279176 C38.1806982,94.0279176 39.0981104,89.7825457 37.8228223,87.7259738 C36.5446938,85.6722153 15.8077695,82.3552547 14.8505933,81.4071498 C13.8934171,80.4590448 26.8138758,62.9176967 26.8138758,60.0733819 C26.8138758,57.229067 30.3241731,37.5483871 30.3241731,37.5483871 C30.3241731,37.5483871 18.3583459,37.8477764 14.0524731,43.7980493 Z" id="Fill-151" fill="#FFFFFF"></path>
                    <path d="M47.9285714,90.7419355 C47.9285714,90.7419355 50.0314039,93.3239636 50.7210591,93.6313479 C51.4107143,93.9387322 51.8571429,93.862618 51.8571429,93.862618 L50.4408867,91.4357458 L47.9285714,90.7419355" id="Fill-152" fill="#FFB27D"></path>
                    <path d="M47.1428571,88.3951613 L53.4285714,91.158706 C53.4285714,91.158706 53.1596808,91.5539072 52.3878065,91.5224056 C51.6127687,91.4909041 49.660939,90.8436905 49.660939,90.8436905 L47.1428571,88.3951613" id="Fill-153" fill="#FFB27D"></path>
                    <polyline id="Fill-154" fill="#FDC748" points="51.0714286 97 95.7676126 97 109.214286 63.3629032 64.5863445 63.3629032 51.0714286 97"></polyline>
                    <polyline id="Fill-155" fill="#E6B137" points="95.8571429 95.4354839 36.9285714 95.4354839 36.9285714 97 95.3347466 97 95.8571429 95.4354839"></polyline>
                    <path d="M83.9789236,80.1801452 C84.3390697,79.1010785 83.6157511,78.2258065 82.3628058,78.2258065 C81.112887,78.2258065 79.8084924,79.1010785 79.4483463,80.1801452 C79.0912266,81.259212 79.8145452,82.1370968 81.064464,82.1370968 C82.3174093,82.1370968 83.6218039,81.259212 83.9789236,80.1801452" id="Fill-156" fill="#FFFFFF"></path>
                </g>
                <g id="Main-button" transform="translate(34.000000, 115.000000)">
                    <rect id="elm/button/mainbutton" fill="#80BC00" x="0" y="0" width="64" height="30" rx="4"></rect>
                    <g id="c-question" transform="translate(10.000000, 8.000000)">
                        <circle id="Oval" stroke="#FFFFFF" stroke-width="1.5" stroke-linecap="round" stroke-linejoin="round" cx="7.5" cy="7.5" r="7.5"></circle>
                        <circle id="Oval" fill="#FFFFFF" fill-rule="nonzero" cx="7.503" cy="11.5" r="1"></circle>
                        <path d="M6,3.077 C6.953,2.217 9.018,2.232 9.423,3.712 C9.953,5.634 7.5,5.642 7.5,8.5" id="Path" stroke="#FFFFFF" stroke-width="1.5" stroke-linecap="round" stroke-linejoin="round"></path>
                    </g>
                    <text id="Aide" font-family="Nunito-Bold, Nunito" font-size="10" font-weight="bold" fill="#FFFFFF">
                        <tspan x="33.5813953" y="19.2083333">Aide</tspan>
                    </text>
                </g>
            </g>
        </g>
    </g>
</svg>