<svg xmlns="http://www.w3.org/2000/svg" width="13" height="13" fill="#fff">
	<path
		d="M6.5 0a.78.78 0 00-.78.78v4.94H.78a.78.78 0 000 1.56h4.94v4.94a.78.78 0 101.56 0V7.28h4.94a.78.78 0 000-1.56H7.28V.78A.78.78 0 006.5 0z" />
</svg>