<?xml version="1.0" encoding="UTF-8"?>
<svg id="call" width="17px" height="16px" viewBox="0 0 17 16" version="1.1" xmlns="http://www.w3.org/2000/svg" xmlns:xlink="http://www.w3.org/1999/xlink">
    <title>call-doctor</title>
    <g id="Symbols" stroke="none" stroke-width="1" fill="none" fill-rule="evenodd">
        <g id="liste" transform="translate(-1520.000000, -1148.000000)" fill="#000000" fill-rule="nonzero">
            <g id="Group-22" transform="translate(2.000000, 1111.000000)">
                <g id="Group-2-Copy-2" transform="translate(1511.000000, 30.000000)">
                    <g id="call-doctor" transform="translate(7.000000, 7.000000)">
                        <path d="M13.1674361,11.0210081 L10.4504361,9.81400805 C9.86988826,9.55437838 9.18728147,9.71866401 8.78843609,10.2140081 L8.00543609,11.1930081 C6.72173605,10.369273 5.62898074,9.2806091 4.80043609,8.00000805 L5.77943609,7.21700805 C6.27430438,6.81829986 6.43854559,6.13628826 6.17943609,5.55600805 L4.98143609,2.83200805 C4.70340759,2.20556871 4.01273801,1.87250685 3.34943609,2.04500805 L1.04943609,2.64500805 C0.358526314,2.82377718 -0.0873296959,3.49363814 0.014436095,4.20000805 C0.89443543,10.3100053 5.69599177,15.1091185 11.8064361,15.9860081 C12.5123493,16.0859455 13.1806168,15.6394291 13.3584361,14.9490081 L13.9584361,12.6490081 C14.1308255,11.9856785 13.7954578,11.2954401 13.1674361,11.0210081 Z" id="Path"></path>
                        <path d="M12.0004361,0 C10.6308269,-0.00248430807 9.35550691,0.697152669 8.62168009,1.8535842 C7.88785328,3.01001573 7.79792748,4.46185809 8.38343609,5.70000805 L8.00043609,8.00008656 L10.3004361,7.61700805 C11.7855583,8.31830151 13.5484402,8.04051711 14.7459427,6.91651168 C15.9434453,5.79250625 16.3321845,4.05072593 15.7262368,2.52421751 C15.1202892,0.997709095 13.6428093,-0.00327539814 12.0004361,0 Z" id="Path"></path>
                    </g>
                </g>
            </g>
        </g>
    </g>
</svg>