<?xml version="1.0" encoding="UTF-8"?>
<svg width="22px" height="22px" viewBox="0 0 22 22" version="1.1" xmlns="http://www.w3.org/2000/svg" xmlns:xlink="http://www.w3.org/1999/xlink">
    <title>export</title>
    <g id="Welcome" stroke="none" stroke-width="1" fill="none" fill-rule="evenodd" stroke-linecap="round" stroke-linejoin="round">
        <g id="GuideLine" transform="translate(-945.000000, -279.000000)" stroke="#000000" stroke-width="2">
            <g id="export" transform="translate(946.000000, 280.000000) scale(1)">
                <polyline id="Path" points="16 13 16 20 0 20 0 6 5 6"></polyline>
                <path d="M7,14 C7,8.4771525 11.4771525,4 17,4 L20,4" id="Path"></path>
                <polyline id="Path" points="16 8 20 4 16 0"></polyline>
            </g>
        </g>
    </g>
</svg>