<svg xmlns="http://www.w3.org/2000/svg" width="22" height="22" viewBox="0 0 22 22">
  <g id="share" transform="translate(1 1)">
    <path id="Path" d="M16,7v7H0V0H5" transform="translate(0 6)" fill="none" stroke="#0a1629" stroke-linecap="round" stroke-linejoin="round" stroke-miterlimit="10" stroke-width="2"/>
    <path id="Path-2" data-name="Path" d="M0,10A10,10,0,0,1,10,0h3" transform="translate(20 10) rotate(180)" fill="none" stroke="#0a1629" stroke-linecap="round" stroke-linejoin="round" stroke-miterlimit="10" stroke-width="2"/>
    <path id="Path-3" data-name="Path" d="M0,8,4,4,0,0" transform="translate(11 14) rotate(180)" fill="none" stroke="#0a1629" stroke-linecap="round" stroke-linejoin="round" stroke-miterlimit="10" stroke-width="2"/>
  </g>
</svg>
