<?xml version="1.0" encoding="UTF-8"?>
<svg xmlns="http://www.w3.org/2000/svg" xmlns:xlink="http://www.w3.org/1999/xlink" width="21px" height="21px" viewBox="0 0 21 21" version="1.1">
<g id="surface1">
<path style=" stroke:none;fill-rule:nonzero;fill:rgb(0%,0%,0%);fill-opacity:1;" d="M 10.53125 13.46875 C 10.222656 13.46875 10.007812 13.699219 9.976562 14.027344 C 9.976562 14.355469 10.304688 14.632812 10.664062 14.535156 C 10.84375 14.488281 10.992188 14.339844 11.042969 14.160156 C 11.140625 13.796875 10.878906 13.46875 10.53125 13.46875 Z M 10.53125 13.46875 "/>
<path style=" stroke:none;fill-rule:nonzero;fill:rgb(0%,0%,0%);fill-opacity:1;" d="M 19.867188 0.328125 L 1.132812 0.328125 C 0.507812 0.328125 0 0.835938 0 1.460938 L 0 14.847656 C 0 15.488281 0.507812 15.980469 1.132812 15.980469 L 7.121094 15.980469 L 7.121094 17.980469 L 6.792969 17.980469 C 6.085938 17.980469 5.496094 18.589844 5.496094 19.328125 L 5.496094 19.949219 C 5.546875 20.375 5.855469 20.703125 6.25 20.703125 L 15.0625 20.703125 C 15.472656 20.703125 15.800781 20.359375 15.800781 19.917969 L 15.800781 19.359375 C 15.800781 18.621094 15.226562 18.015625 14.535156 18.015625 L 14.175781 18.015625 L 14.175781 15.996094 L 19.851562 15.996094 C 20.492188 15.996094 20.984375 15.488281 20.984375 14.832031 L 20.984375 1.460938 C 21 0.835938 20.507812 0.328125 19.867188 0.328125 Z M 1.132812 0.984375 L 19.851562 0.984375 C 20.128906 0.984375 20.328125 1.199219 20.328125 1.460938 L 20.328125 12.007812 L 0.65625 12.007812 L 0.65625 1.460938 C 0.65625 1.214844 0.886719 0.984375 1.132812 0.984375 Z M 15.144531 19.359375 L 15.144531 19.949219 C 15.144531 20.015625 15.109375 20.082031 15.0625 20.082031 L 6.265625 20.082031 C 6.234375 20.082031 6.167969 20.015625 6.167969 19.933594 L 6.167969 19.359375 C 6.167969 18.980469 6.449219 18.671875 6.808594 18.671875 L 14.550781 18.671875 C 14.863281 18.671875 15.144531 18.980469 15.144531 19.359375 Z M 13.519531 18.015625 L 7.777344 18.015625 L 7.777344 15.996094 L 13.519531 15.996094 Z M 19.867188 15.339844 L 1.132812 15.339844 C 0.851562 15.339844 0.65625 15.125 0.65625 14.863281 L 0.65625 12.683594 L 20.34375 12.683594 L 20.34375 14.847656 C 20.34375 15.125 20.148438 15.339844 19.867188 15.339844 Z M 19.867188 15.339844 "/>
<path style=" stroke:none;fill-rule:nonzero;fill:rgb(0%,0%,0%);fill-opacity:1;" d="M 1.753906 11.304688 C 1.789062 11.453125 1.917969 11.566406 2.082031 11.566406 L 2.148438 11.566406 C 2.328125 11.535156 2.445312 11.351562 2.394531 11.171875 L 2.117188 9.859375 C 2.082031 9.746094 2.117188 9.648438 2.164062 9.484375 L 2.773438 7.742188 C 2.871094 7.449219 3.050781 7.234375 3.28125 7.136719 C 3.429688 7.070312 3.59375 7.085938 3.722656 7.152344 L 4.234375 7.433594 C 4.757812 7.710938 5.332031 7.710938 5.839844 7.433594 L 6.347656 7.152344 C 6.546875 7.039062 6.792969 7.039062 6.972656 7.121094 C 7.1875 7.21875 7.351562 7.464844 7.433594 7.824219 L 7.84375 9.628906 C 7.890625 9.941406 8.089844 10.203125 8.382812 10.335938 C 8.664062 10.46875 8.972656 10.46875 9.269531 10.285156 L 10.992188 9.253906 C 11.027344 9.234375 11.070312 9.195312 11.089844 9.171875 L 12.355469 7.449219 C 12.46875 7.300781 12.4375 7.105469 12.289062 6.988281 C 12.140625 6.875 11.945312 6.90625 11.828125 7.054688 L 10.597656 8.726562 L 8.941406 9.730469 C 8.792969 9.828125 8.53125 9.730469 8.480469 9.515625 L 8.070312 7.695312 C 7.90625 6.988281 7.546875 6.675781 7.25 6.546875 C 6.890625 6.382812 6.429688 6.398438 6.039062 6.59375 L 5.527344 6.875 C 5.21875 7.054688 4.890625 7.039062 4.5625 6.875 L 4.050781 6.59375 C 3.742188 6.429688 3.378906 6.414062 3.050781 6.546875 C 2.65625 6.710938 2.328125 7.070312 2.164062 7.546875 L 1.542969 9.269531 L 1.542969 9.285156 C 1.476562 9.484375 1.410156 9.730469 1.476562 10.007812 Z M 1.753906 11.304688 "/>
<path style=" stroke:none;fill-rule:nonzero;fill:rgb(0%,0%,0%);fill-opacity:1;" d="M 4.183594 8.890625 C 4.167969 8.710938 4.003906 8.582031 3.824219 8.597656 C 3.640625 8.613281 3.511719 8.777344 3.527344 8.957031 L 3.707031 10.714844 C 3.722656 10.878906 3.871094 11.007812 4.035156 11.007812 L 4.070312 11.007812 C 4.25 10.992188 4.378906 10.828125 4.363281 10.648438 Z M 4.183594 8.890625 "/>
<path style=" stroke:none;fill-rule:nonzero;fill:rgb(0%,0%,0%);fill-opacity:1;" d="M 6.316406 8.628906 C 6.136719 8.613281 5.988281 8.761719 5.972656 8.941406 L 5.875 10.648438 C 5.855469 10.828125 6.003906 10.976562 6.183594 10.992188 L 6.203125 10.992188 C 6.367188 10.992188 6.511719 10.859375 6.53125 10.679688 L 6.628906 8.972656 C 6.628906 8.792969 6.496094 8.628906 6.316406 8.628906 Z M 6.316406 8.628906 "/>
<path style=" stroke:none;fill-rule:nonzero;fill:rgb(0%,0%,0%);fill-opacity:1;" d="M 10.925781 4.050781 L 17.949219 4.050781 C 18.128906 4.050781 18.277344 3.90625 18.277344 3.722656 C 18.277344 3.542969 18.128906 3.394531 17.949219 3.394531 L 10.925781 3.394531 C 10.746094 3.394531 10.597656 3.542969 10.597656 3.722656 C 10.597656 3.90625 10.746094 4.050781 10.925781 4.050781 Z M 10.925781 4.050781 "/>
<path style=" stroke:none;fill-rule:nonzero;fill:rgb(0%,0%,0%);fill-opacity:1;" d="M 10.925781 6.382812 L 15.257812 6.382812 C 15.4375 6.382812 15.585938 6.234375 15.585938 6.054688 C 15.585938 5.875 15.4375 5.726562 15.257812 5.726562 L 10.925781 5.726562 C 10.746094 5.726562 10.597656 5.875 10.597656 6.054688 C 10.597656 6.234375 10.746094 6.382812 10.925781 6.382812 Z M 10.925781 6.382812 "/>
<path style=" stroke:none;fill-rule:nonzero;fill:rgb(0%,0%,0%);fill-opacity:1;" d="M 5.117188 6.136719 C 6.167969 6.136719 7.039062 5.28125 7.039062 4.214844 C 7.039062 3.167969 6.183594 2.296875 5.117188 2.296875 C 4.070312 2.296875 3.199219 3.148438 3.199219 4.214844 C 3.199219 5.28125 4.050781 6.136719 5.117188 6.136719 Z M 5.117188 2.96875 C 5.808594 2.96875 6.382812 3.527344 6.382812 4.234375 C 6.382812 4.9375 5.824219 5.496094 5.117188 5.496094 C 4.414062 5.496094 3.855469 4.9375 3.855469 4.234375 C 3.855469 3.527344 4.414062 2.96875 5.117188 2.96875 Z M 5.117188 2.96875 "/>
</g>
</svg>
