<?xml version="1.0" encoding="UTF-8"?>
<svg width="14px" height="16px" viewBox="0 0 14 16" version="1.1" xmlns="http://www.w3.org/2000/svg" xmlns:xlink="http://www.w3.org/1999/xlink">
    <title>personal-trainer</title>
    <g id="Symbols" stroke="none" stroke-width="1" fill="none" fill-rule="evenodd">
        <g id="liste" transform="translate(-1543.000000, -543.000000)" fill="#000000" fill-rule="nonzero">
            <g id="Group-14" transform="translate(2.000000, 505.000000)">
                <g id="Group-2-Copy-2" transform="translate(1533.000000, 31.000000)">
                    <g id="personal-trainer" transform="translate(8.000000, 7.000000)">
                        <circle id="Oval" cx="6.99984417" cy="2.5" r="2.5"></circle>
                        <path d="M13.6508442,9.241 L10.1508442,6.241 C9.96958305,6.08550933 9.73865988,6 9.49984417,6 L4.49984417,6 C4.26102846,6 4.03010529,6.08550933 3.84884417,6.241 L0.348844169,9.241 C0.137518033,9.42231323 0.0113584818,9.68352694 0.000729752391,9.96177189 C-0.009898977,10.2400168 0.0959657097,10.5100937 0.292844169,10.707 L2.99984417,13.414 L2.99984417,10.586 L2.47084417,10.057 L3.99984417,8.746 L3.99984417,15 C3.99984417,15.5522847 4.44755942,16 4.99984417,16 L8.99984417,16 C9.55212892,16 9.99984417,15.5522847 9.99984417,15 L9.99984417,8.746 L11.5288442,10.057 L10.9998442,10.586 L10.9998442,13.414 L13.7068442,10.707 C13.9037226,10.5100937 14.0095873,10.2400168 13.9989586,9.96177189 C13.9883299,9.68352694 13.8621703,9.42231323 13.6508442,9.241 L13.6508442,9.241 Z" id="Path"></path>
                    </g>
                </g>
            </g>
        </g>
    </g>
</svg>