<?xml version="1.0" encoding="UTF-8"?>
<svg width="14px" height="16px" viewBox="0 0 14 16" version="1.1" xmlns="http://www.w3.org/2000/svg" xmlns:xlink="http://www.w3.org/1999/xlink">
    <title>profile</title>
    <g id="Symbols" stroke="none" stroke-width="1" fill="none" fill-rule="evenodd">
        <g id="Session-Header" transform="translate(-409.000000, -149.000000)" fill="#000000" fill-rule="nonzero">
            <g id="Group-15" transform="translate(0.000000, 35.000000)">
                <g id="Group-8" transform="translate(0.000000, 107.000000)">
                    <g id="Group-2" transform="translate(394.000000, 0.000000)">
                        <g id="profile" transform="translate(15.000000, 7.000000)">
                            <circle id="Oval" cx="7" cy="3.5" r="3.5"></circle>
                            <path d="M0,15.5 C0,15.7761424 0.223857625,16 0.5,16 L13.5,16 C13.7761424,16 14,15.7761424 14,15.5 C13.9955914,11.6358343 10.8641657,8.50440864 7,8.5 C3.13583434,8.50440864 0.00440863597,11.6358343 0,15.5 Z" id="Path"></path>
                        </g>
                    </g>
                </g>
            </g>
        </g>
    </g>
</svg>