<?xml version="1.0" encoding="UTF-8"?>
<svg width="18px" height="18px" viewBox="0 0 18 18" version="1.1" xmlns="http://www.w3.org/2000/svg" xmlns:xlink="http://www.w3.org/1999/xlink">
    <title>tableau-de-bord</title>
    <g id="TABLEAU-DE-BORD" stroke="none" stroke-width="1" fill="none" fill-rule="evenodd">
        <g id="Tableau-de-bord" transform="translate(-41.000000, -422.000000)" fill-rule="nonzero">
            <g id="tableau-de-bord" transform="translate(41.000000, 422.000000)">
                <path d="M6.75,10 L1.125,10 C0.504,10 0,9.50222222 0,8.88888889 L0,1.11111111 C0,0.497777778 0.504,0 1.125,0 L6.75,0 C7.371,0 7.875,0.497777778 7.875,1.11111111 L7.875,8.88888889 C7.875,9.50222222 7.371,10 6.75,10 Z" id="Path" fill="#80BC00"></path>
                <path d="M6.75,18 L1.125,18 C0.504,18 0,17.4624 0,16.8 L0,13.2 C0,12.5376 0.504,12 1.125,12 L6.75,12 C7.371,12 7.875,12.5376 7.875,13.2 L7.875,16.8 C7.875,17.4624 7.371,18 6.75,18 Z" id="Path" fill="#54565A"></path>
                <path d="M16.875,7 L11.25,7 C10.629,7 10.125,6.47733333 10.125,5.83333333 L10.125,1.16666667 C10.125,0.522666667 10.629,0 11.25,0 L16.875,0 C17.496,0 18,0.522666667 18,1.16666667 L18,5.83333333 C18,6.47733333 17.496,7 16.875,7 Z" id="Path" fill="#54565A"></path>
                <path d="M16.875,18 L11.25,18 C10.629,18 10.125,17.496 10.125,16.875 L10.125,10.125 C10.125,9.504 10.629,9 11.25,9 L16.875,9 C17.496,9 18,9.504 18,10.125 L18,16.875 C18,17.496 17.496,18 16.875,18 Z" id="Path" fill="#80BC00"></path>
            </g>
        </g>
    </g>
</svg>